[
    {
        "name": "home",
        "href": "main"
    },
    {
        "name": "products",
        "href": "catalog"
    },
    {
        "name": "showroom",
        "href": "showroom"
    },
      {
        "name": "contacts",
        "href": "contacts"
    }
]